 _____ _            _                 _
|  ___| |          | |               | |
| |__ | | ___ _ __ | |__   __ _ _ __ | |_
|  __|| |/ _ \ '_ \| '_ \ / _` | '_ \| __|
| |___| |  __/ |_) | | | | (_| | | | | |_
\____/|_|\___| .__/|_| |_|\__,_|_| |_|\__|
             | |